session-02-presentation.utf8
…
Data sets in package nycflights13:

airlines                      Airline names.
airports                      Airport metadata
flights                       Flights data
planes                        Plane metadata.
weather                       Hourly weather data

Dataset: flights

flights

## # A tibble: 336,776 x 19
##    year month   day dep_time sched_dep_time dep_delay arr_time sched_arr_time
##   <int> <int> <int>    <int>          <int>     <dbl>    <int>          <int>
## 1  2013     1     1      517            515         2      830            819
## 2  2013     1     1      533            529         4      850            830
## 3  2013     1     1      542            540         2      923            850
## 4  2013     1     1      544            545        -1     1004           1022
## 5  2013     1     1      554            600        -6      812            837
## #  with 336,771 more rows, and 11 more variables: arr_delay <dbl>,
## #   carrier <chr>, flight <int>, tailnum <chr>, origin <chr>, dest <chr>,
## #   air_time <dbl>, distance <dbl>, hour <dbl>, minute <dbl>, time_hour <dttm>
…
summarise() reduces multiple values down to a single summary.

group_by() allows to perform any operation “by group”.

Cheat sheet pdf

Row filtering (filter())

Selecting all flights on January 1st

(month == 1 and day == 1)

filter(flights, month == 1, day == 1)

## # A tibble: 842 x 19
##    year month   day dep_time sched_dep_time dep_delay arr_time sched_arr_time
##   <int> <int> <int>    <int>          <int>     <dbl>    <int>          <int>
## 1  2013     1     1      517            515         2      830            819
## 2  2013     1     1      533            529         4      850            830
## 3  2013     1     1      542            540         2      923            850
## 4  2013     1     1      544            545        -1     1004           1022
## 5  2013     1     1      554            600        -6      812            837
## #  with 837 more rows, and 11 more variables: arr_delay <dbl>, carrier <chr>,
## #   flight <int>, tailnum <chr>, origin <chr>, dest <chr>, air_time <dbl>,
## #   distance <dbl>, hour <dbl>, minute <dbl>, time_hour <dttm>
…
More row-selection functions

slice(). Select rows by position (helpers slice_head(), slice_tail(), slice_min(), slice_max(), slice_sample())

distinct(). Select distinct observations given certain variables

sample_n(), sample_frac(). Random selection of rows

Ordering observations (arrange())

Order flights by year, month, day and delay

arrange(flights, year, month, day, dep_delay)

## # A tibble: 336,776 x 19
##    year month   day dep_time sched_dep_time dep_delay arr_time sched_arr_time
##   <int> <int> <int>    <int>          <int>     <dbl>    <int>          <int>
## 1  2013     1     1      940            955       -15     1226           1220
## 2  2013     1     1     2030           2045       -15     2150           2225
## 3  2013     1     1     1716           1730       -14     1947           1953
## 4  2013     1     1      946            959       -13     1146           1202
## 5  2013     1     1     2217           2229       -12      249            315
## #  with 336,771 more rows, and 11 more variables: arr_delay <dbl>,
## #   carrier <chr>, flight <int>, tailnum <chr>, origin <chr>, dest <chr>,
## #   air_time <dbl>, distance <dbl>, hour <dbl>, minute <dbl>, time_hour <dttm>

Ordering observations (arrange())

Order flights by year, month, day and decreasing delay

arrange(flights, year, month, day, desc(dep_delay))

## # A tibble: 336,776 x 19
##    year month   day dep_time sched_dep_time dep_delay arr_time sched_arr_time
##   <int> <int> <int>    <int>          <int>     <dbl>    <int>          <int>
## 1  2013     1     1      848           1835       853     1001           1950
## 2  2013     1     1     2343           1724       379      314           1938
## 3  2013     1     1     1815           1325       290     2120           1542
## 4  2013     1     1     2205           1720       285       46           2040
## 5  2013     1     1     1842           1422       260     1958           1535
## #  with 336,771 more rows, and 11 more variables: arr_delay <dbl>,
## #   carrier <chr>, flight <int>, tailnum <chr>, origin <chr>, dest <chr>,
## #   air_time <dbl>, distance <dbl>, hour <dbl>, minute <dbl>, time_hour <dttm>

Selecting variables (select())

Select year, month, day and flight number

select(flights, year, month, day, flight)

## # A tibble: 336,776 x 4
##    year month   day flight
##   <int> <int> <int>  <int>
## 1  2013     1     1   1545
## 2  2013     1     1   1714
## 3  2013     1     1   1141
## 4  2013     1     1    725
## 5  2013     1     1    461
## #  with 336,771 more rows

select() helpers

Special functions can be used to facilitate variable selection.

Matching names: starts_with(), ends_with(), contains(), matches(), num_range().

From vector of names: all_of(), any_of().

Using a function: where()

select(flights, starts_with('dep_'), contains('arr_'))

## # A tibble: 336,776 x 5
##   dep_time dep_delay arr_time sched_arr_time arr_delay
##      <int>     <dbl>    <int>          <int>     <dbl>
## 1      517         2      830            819        11
## 2      533         4      850            830        20
## 3      542         2      923            850        33
## 4      544        -1     1004           1022       -18
## 5      554        -6      812            837       -25
## #  with 336,771 more rows

Transform variables (mutate())

Calculating average flight speed (km/h)

mutate(flights,
       distance_km = distance * 1.60934,
       air_time_h = air_time * 60,
       speed_km_h = distance_km / air_time_h)

## # A tibble: 336,776 x 22
##    year month   day dep_time sched_dep_time dep_delay arr_time sched_arr_time
##   <int> <int> <int>    <int>          <int>     <dbl>    <int>          <int>
## 1  2013     1     1      517            515         2      830            819
## 2  2013     1     1      533            529         4      850            830
## 3  2013     1     1      542            540         2      923            850
## 4  2013     1     1      544            545        -1     1004           1022
## 5  2013     1     1      554            600        -6      812            837
## #  with 336,771 more rows, and 14 more variables: arr_delay <dbl>,
## #   carrier <chr>, flight <int>, tailnum <chr>, origin <chr>, dest <chr>,
## #   air_time <dbl>, distance <dbl>, hour <dbl>, minute <dbl>, time_hour <dttm>,
## #   distance_km <dbl>, air_time_h <dbl>, speed_km_h <dbl>
…
Working by groups (group_by())

Stratify flight table by day

flights_by_day = group_by(flights, year, month, day)

Calculate the average delays in departure and arrival by day

summarise(flights_by_day, 
          average_dep_delay = mean(dep_delay, na.rm=TRUE),
          average_arr_delay = mean(arr_delay, na.rm=TRUE))

## # A tibble: 365 x 5
## # Groups:   year, month [12]
##    year month   day average_dep_delay average_arr_delay
##   <int> <int> <int>             <dbl>             <dbl>
## 1  2013     1     1             11.5              12.7 
## 2  2013     1     2             13.9              12.7 
## 3  2013     1     3             11.0               5.73
## 4  2013     1     4              8.95             -1.93
## 5  2013     1     5              5.73             -1.53
## #  with 360 more rows
…
“Rectangling”.

“Nesting”.

Splitting and combining: separate() and unite().

Cheat Sheet pdf

Messy datasets (1)

Column headers are values, no variable names

tidyr::relig_income

## # A tibble: 18 x 11
##   religion `<$10k` `$10-20k` `$20-30k` `$30-40k` `$40-50k` `$50-75k` `$75-100k`
##   <chr>      <dbl>     <dbl>     <dbl>     <dbl>     <dbl>     <dbl>      <dbl>
## 1 Agnostic      27        34        60        81        76       137        122
## 2 Atheist       12        27        37        52        35        70         73
## 3 Buddhist      27        21        30        34        33        58         62
## 4 Catholic     418       617       732       670       638      1116        949
## 5 Dont k      15        14        15        11        10        35         21
## #  with 13 more rows, and 3 more variables: `$100-150k` <dbl>, `>150k` <dbl>,
## #   `Don't know/refused` <dbl>

Messy datasets (2)

Multiple variables stored in a column

tidyr::who

## # A tibble: 7,240 x 60
##   country iso2  iso3   year new_sp_m014 new_sp_m1524 new_sp_m2534 new_sp_m3544
##   <chr>   <chr> <chr> <int>       <int>        <int>        <int>        <int>
## 1 Afghan AF    AFG    1980          NA           NA           NA           NA
## 2 Afghan AF    AFG    1981          NA           NA           NA           NA
## 3 Afghan AF    AFG    1982          NA           NA           NA           NA
## 4 Afghan AF    AFG    1983          NA           NA           NA           NA
## 5 Afghan AF    AFG    1984          NA           NA           NA           NA
## #  with 7,235 more rows, and 52 more variables: new_sp_m4554 <int>,
## #   new_sp_m5564 <int>, new_sp_m65 <int>, new_sp_f014 <int>,
## #   new_sp_f1524 <int>, new_sp_f2534 <int>, new_sp_f3544 <int>,
## #   new_sp_f4554 <int>, new_sp_f5564 <int>, new_sp_f65 <int>,
## #   new_sn_m014 <int>, new_sn_m1524 <int>, new_sn_m2534 <int>,
## #   new_sn_m3544 <int>, new_sn_m4554 <int>, new_sn_m5564 <int>,
## #   new_sn_m65 <int>, new_sn_f014 <int>, new_sn_f1524 <int>,
## #   new_sn_f2534 <int>, new_sn_f3544 <int>, new_sn_f4554 <int>,
## #   new_sn_f5564 <int>, new_sn_f65 <int>, new_ep_m014 <int>,
…
Messy datasets (3)

Variables are stored in both rows and columns

library(readr)
read_csv("session-02-presentation/weather.csv")

## # A tibble: 22 x 35
##   id     year month element    d1    d2    d3    d4    d5    d6    d7    d8
##   <chr> <dbl> <dbl> <chr>   <dbl> <dbl> <dbl> <dbl> <dbl> <dbl> <dbl> <dbl>
## 1 MX17  2010     1 tmax       NA  NA    NA      NA  NA      NA    NA    NA
## 2 MX17  2010     1 tmin       NA  NA    NA      NA  NA      NA    NA    NA
## 3 MX17  2010     2 tmax       NA  27.3  24.1    NA  NA      NA    NA    NA
## 4 MX17  2010     2 tmin       NA  14.4  14.4    NA  NA      NA    NA    NA
## 5 MX17  2010     3 tmax       NA  NA    NA      NA  32.1    NA    NA    NA
## #  with 17 more rows, and 23 more variables: d9 <lgl>, d10 <dbl>, d11 <dbl>,
## #   d12 <lgl>, d13 <dbl>, d14 <dbl>, d15 <dbl>, d16 <dbl>, d17 <dbl>,
## #   d18 <lgl>, d19 <lgl>, d20 <lgl>, d21 <lgl>, d22 <lgl>, d23 <dbl>,
## #   d24 <lgl>, d25 <dbl>, d26 <dbl>, d27 <dbl>, d28 <dbl>, d29 <dbl>,
## #   d30 <dbl>, d31 <dbl>
…
